<?xml version="1.0" encoding="UTF-8" standalone="no"?>
<!-- Created with Inkscape (http://www.inkscape.org/) -->

<svg
   xmlns:dc="http://purl.org/dc/elements/1.1/"
   xmlns:cc="http://creativecommons.org/ns#"
   xmlns:rdf="http://www.w3.org/1999/02/22-rdf-syntax-ns#"
   xmlns:svg="http://www.w3.org/2000/svg"
   xmlns="http://www.w3.org/2000/svg"
   xmlns:sodipodi="http://sodipodi.sourceforge.net/DTD/sodipodi-0.dtd"
   xmlns:inkscape="http://www.inkscape.org/namespaces/inkscape"
   width="1024"
   height="1024"
   id="svg2"
   version="1.1"
   inkscape:version="0.48.3.1 r9886"
   sodipodi:docname="logo16.svg"
   inkscape:export-filename="/home/igor2/C/cschem/trunk/doc/logo/logo128.png"
   inkscape:export-xdpi="11.25"
   inkscape:export-ydpi="11.25">
  <defs
     id="defs4" />
  <sodipodi:namedview
     id="base"
     pagecolor="#ffffff"
     bordercolor="#666666"
     borderopacity="1.0"
     inkscape:pageopacity="0.0"
     inkscape:pageshadow="2"
     inkscape:zoom="0.96591836"
     inkscape:cx="617.09986"
     inkscape:cy="487.58957"
     inkscape:document-units="px"
     inkscape:current-layer="layer2"
     showgrid="true"
     inkscape:snap-grids="true"
     inkscape:window-width="1922"
     inkscape:window-height="1186"
     inkscape:window-x="0"
     inkscape:window-y="16"
     inkscape:window-maximized="0">
    <inkscape:grid
       type="xygrid"
       id="grid2988"
       empspacing="5"
       visible="true"
       enabled="true"
       snapvisiblegridlinesonly="true" />
  </sodipodi:namedview>
  <metadata
     id="metadata7">
    <rdf:RDF>
      <cc:Work
         rdf:about="">
        <dc:format>image/svg+xml</dc:format>
        <dc:type
           rdf:resource="http://purl.org/dc/dcmitype/StillImage" />
        <dc:title />
      </cc:Work>
    </rdf:RDF>
  </metadata>
  <g
     inkscape:label="Layer 1"
     inkscape:groupmode="layer"
     id="layer1"
     transform="translate(0,-28.362183)" />
  <g
     inkscape:groupmode="layer"
     id="layer2"
     inkscape:label="dimensions"
     transform="translate(0,-28.362183)">
    <rect
       style="fill:#d8f7fb;fill-opacity:1;stroke:none"
       id="rect2999"
       width="1025"
       height="1025"
       x="0"
       y="27.362183"
       ry="5.6442318" />
    <path
       sodipodi:type="arc"
       style="fill:#020202;fill-opacity:1;stroke:#000000;stroke-width:0.40000001;stroke-linecap:round;stroke-miterlimit:4;stroke-opacity:1;stroke-dasharray:none"
       id="path2992"
       sodipodi:cx="70"
       sodipodi:cy="974"
       sodipodi:rx="30"
       sodipodi:ry="30"
       d="m 100,974 c 0,16.56854 -13.431458,30 -30,30 -16.568542,0 -30,-13.43146 -30,-30 0,-16.56854 13.431458,-30 30,-30 16.568542,0 30,13.43146 30,30 z"
       transform="translate(50,-91.637817)" />
    <path
       transform="translate(50,-791.63782)"
       sodipodi:type="arc"
       style="fill:#020202;fill-opacity:1;stroke:#000000;stroke-width:0.40000001;stroke-linecap:round;stroke-miterlimit:4;stroke-opacity:1;stroke-dasharray:none"
       id="path2992-3"
       sodipodi:cx="70"
       sodipodi:cy="974"
       sodipodi:rx="30"
       sodipodi:ry="30"
       d="m 100,974 c 0,16.56854 -13.431458,30 -30,30 -16.568542,0 -30,-13.43146 -30,-30 0,-16.56854 13.431458,-30 30,-30 16.568542,0 30,13.43146 30,30 z" />
    <path
       sodipodi:type="arc"
       style="fill:#020202;fill-opacity:1;stroke:#000000;stroke-width:0.40000001;stroke-linecap:round;stroke-miterlimit:4;stroke-opacity:1;stroke-dasharray:none"
       id="path2992-8"
       sodipodi:cx="70"
       sodipodi:cy="974"
       sodipodi:rx="30"
       sodipodi:ry="30"
       d="m 100,974 c 0,16.56854 -13.431458,30 -30,30 -16.568542,0 -30,-13.43146 -30,-30 0,-16.56854 13.431458,-30 30,-30 16.568542,0 30,13.43146 30,30 z"
       transform="translate(830,-101.63782)" />
    <path
       transform="translate(830,-791.63782)"
       sodipodi:type="arc"
       style="fill:#020202;fill-opacity:1;stroke:#000000;stroke-width:0.40000001;stroke-linecap:round;stroke-miterlimit:4;stroke-opacity:1;stroke-dasharray:none"
       id="path2992-3-6"
       sodipodi:cx="70"
       sodipodi:cy="974"
       sodipodi:rx="30"
       sodipodi:ry="30"
       d="m 100,974 c 0,16.56854 -13.431458,30 -30,30 -16.568542,0 -30,-13.43146 -30,-30 0,-16.56854 13.431458,-30 30,-30 16.568542,0 30,13.43146 30,30 z" />
    <path
       style="fill:#020202;fill-opacity:1;stroke:#000000;stroke-width:0;stroke-linecap:round;stroke-miterlimit:4;stroke-opacity:1;stroke-dasharray:none"
       d="m 80,182.36218 270,0"
       id="path3809"
       inkscape:connector-curvature="0" />
    <path
       id="path3937"
       style="fill:none;stroke:#000000;stroke-width:50;stroke-linecap:round;stroke-miterlimit:4;stroke-opacity:1;stroke-dasharray:none"
       d="m 820,182.36218 80,0 m -680,0 -100,0 m 700,0 -60,90 M 640,92.362183 760,272.36218 M 640,92.362183 520,272.36218 M 400,92.362183 520,272.36218 M 400,92.362183 280,272.36218 m -60,-90 60,90"
       inkscape:connector-curvature="0" />
    <path
       id="path3949"
       transform="translate(0,28.362183)"
       style="fill:none;stroke:#000000;stroke-width:50;stroke-linecap:round;stroke-miterlimit:4;stroke-opacity:1;stroke-dasharray:none"
       d="m 120,154 0,270 m -90,0 190,0"
       inkscape:connector-curvature="0"
       sodipodi:nodetypes="cccc" />
    <path
       id="path3951"
       transform="translate(0,28.362183)"
       style="fill:none;stroke:#000000;stroke-width:50;stroke-linecap:round;stroke-miterlimit:4;stroke-opacity:1;stroke-dasharray:none"
       d="m 120,854 0,-260 m -90,0 190,0"
       inkscape:connector-curvature="0"
       sodipodi:nodetypes="cccc" />
    <path
       id="path4101"
       style="fill:none;stroke:#000000;stroke-width:50;stroke-linecap:round;stroke-miterlimit:4;stroke-opacity:1;stroke-dasharray:none"
       d="m 660,872.36218 c 60,-80 70,-80 90,0 l 150,0 m -610,10 -170,0 m 410,0 c 90,-110.00001 80,-90.00001 120,0 90,160.00002 -120,140.00002 10,-10 m -250,10 c 90,-110.00001 80,-90.00001 120,0 90,160.00002 -120,140.00002 10,-10 m -250,10.00001 c 90,-110 80,-90 120,0 90,160.00001 -120,140.00001 10,-10"
       inkscape:connector-curvature="0" />
    <path
       transform="matrix(2,0,0,2,760,-1305.6378)"
       sodipodi:type="arc"
       style="fill:#020202;fill-opacity:1;stroke:#000000;stroke-width:0.40000001;stroke-linecap:round;stroke-miterlimit:4;stroke-opacity:1;stroke-dasharray:none"
       id="path2992-3-6-3-0"
       sodipodi:cx="70"
       sodipodi:cy="974"
       sodipodi:rx="30"
       sodipodi:ry="30"
       d="m 100,974 a 30,30 0 1 1 -60,0 30,30 0 1 1 60,0 z" />
    <path
       style="fill:none;stroke:#1195a9;stroke-width:60;stroke-linecap:round;stroke-miterlimit:1;stroke-opacity:1;marker-start:none;stroke-dasharray:none"
       d="M 660,356.6875 C 627.28131,329.99962 585.51509,314 540,314 c -104.9341,0 -190,85.0659 -190,190 0,104.9341 85.0659,190 190,190 45.51509,0 87.28131,-15.99962 120,-42.6875"
       transform="translate(0,28.362183)"
       id="path4145"
       inkscape:connector-curvature="0"
       sodipodi:nodetypes="csssc" />
    <path
       id="path5238-4"
       style="fill:#1195a9;fill-opacity:1;stroke:none"
       d="m 770,452.36218 -210,10 57.81464,-106.60022 M 770,452.36218 l -90,-200 -62.18536,103.39978"
       inkscape:connector-curvature="0"
       sodipodi:nodetypes="cccccc" />
    <path
       style="fill:none;stroke:#000000;stroke-width:50;stroke-linecap:round;stroke-miterlimit:4;stroke-opacity:1;stroke-dasharray:none"
       d="m 900,872.36218 0,-220"
       id="path5292"
       inkscape:connector-curvature="0"
       sodipodi:nodetypes="cc" />
    <path
       style="fill:none;stroke:#000000;stroke-width:50;stroke-linecap:round;stroke-miterlimit:4;stroke-opacity:1;stroke-dasharray:none"
       d="m 900,182.36218 0,244.99999"
       id="path5292-8"
       inkscape:connector-curvature="0"
       sodipodi:nodetypes="cc" />
    <path
       transform="matrix(2,0,0,2,760,-1505.6378)"
       sodipodi:type="arc"
       style="fill:#020202;fill-opacity:1;stroke:#000000;stroke-width:0.40000001;stroke-linecap:round;stroke-miterlimit:4;stroke-opacity:1;stroke-dasharray:none"
       id="path2992-3-6-3-0-2"
       sodipodi:cx="70"
       sodipodi:cy="974"
       sodipodi:rx="30"
       sodipodi:ry="30"
       d="m 100,974 a 30,30 0 1 1 -60,0 30,30 0 1 1 60,0 z" />
  </g>
</svg>
