<?xml version="1.0" encoding="UTF-8" standalone="no"?>
<!DOCTYPE svg PUBLIC "-//W3C//DTD SVG 1.1//EN"
 "http://www.w3.org/Graphics/SVG/1.1/DTD/svg11.dtd">
<!-- Generated by graphviz version 2.40.1 (20161225.0304)
 -->
<!-- Title: ha:arc.ID Pages: 1 -->
<svg width="1002pt" height="153pt"
 viewBox="0.00 0.00 1002.00 152.89" xmlns="http://www.w3.org/2000/svg" xmlns:xlink="http://www.w3.org/1999/xlink">
<g id="graph0" class="graph" transform="scale(1 1) rotate(0) translate(4 148.8944)">
<title>ha:arc.ID</title>
<polygon fill="#ffffff" stroke="transparent" points="-4,4 -4,-148.8944 998.0036,-148.8944 998.0036,4 -4,4"/>
<!-- /lht_tree_doc/comm/arc.ID -->
<g id="node1" class="node">
<title>/lht_tree_doc/comm/arc.ID</title>
<g id="a_node1"><a xlink:href="tree.html#/lht_tree_doc/comm/arc.ID" xlink:title=" Drawing object: circular arc ">
<ellipse fill="none" stroke="#000000" cx="494.234" cy="-117.3173" rx="48.1667" ry="27.6545"/>
<text text-anchor="middle" x="494.234" y="-121.6173" font-family="Times,serif" font-size="14.00" fill="#000000">ha:arc.ID</text>
</a>
</g>
</g>
<!-- /lht_tree_doc/comm/arc.ID/children/cx -->
<g id="node2" class="node">
<title>/lht_tree_doc/comm/arc.ID/children/cx</title>
<g id="a_node2"><a xlink:href="tree.html#/lht_tree_doc/comm/arc.ID/children/cx" xlink:title="center point, x coord ">
<ellipse fill="none" stroke="#000000" cx="33.234" cy="-26.8701" rx="33.4697" ry="26.7407"/>
<text text-anchor="middle" x="33.234" y="-30.6701" font-family="Times,serif" font-size="14.00" fill="#000000">cx</text>
<text text-anchor="middle" x="33.234" y="-15.6701" font-family="Times,serif" font-size="14.00" fill="#000000">coord</text>
</a>
</g>
</g>
<!-- /lht_tree_doc/comm/arc.ID&#45;&gt;/lht_tree_doc/comm/arc.ID/children/cx -->
<g id="edge1" class="edge">
<title>/lht_tree_doc/comm/arc.ID&#45;&gt;/lht_tree_doc/comm/arc.ID/children/cx</title>
<path fill="none" stroke="#000000" d="M446.7325,-112.6241C351.9431,-102.8494 142.6334,-79.0991 75.234,-53.7401 72.4997,-52.7113 69.7563,-51.4868 67.0538,-50.136"/>
<polygon fill="#000000" stroke="#000000" points="68.5368,-46.9559 58.0956,-45.1579 65.1365,-53.0747 68.5368,-46.9559"/>
</g>
<!-- /lht_tree_doc/comm/arc.ID/children/cy -->
<g id="node3" class="node">
<title>/lht_tree_doc/comm/arc.ID/children/cy</title>
<g id="a_node3"><a xlink:href="tree.html#/lht_tree_doc/comm/arc.ID/children/cy" xlink:title="center point, y coord ">
<ellipse fill="none" stroke="#000000" cx="117.234" cy="-26.8701" rx="33.4697" ry="26.7407"/>
<text text-anchor="middle" x="117.234" y="-30.6701" font-family="Times,serif" font-size="14.00" fill="#000000">cy</text>
<text text-anchor="middle" x="117.234" y="-15.6701" font-family="Times,serif" font-size="14.00" fill="#000000">coord</text>
</a>
</g>
</g>
<!-- /lht_tree_doc/comm/arc.ID&#45;&gt;/lht_tree_doc/comm/arc.ID/children/cy -->
<g id="edge2" class="edge">
<title>/lht_tree_doc/comm/arc.ID&#45;&gt;/lht_tree_doc/comm/arc.ID/children/cy</title>
<path fill="none" stroke="#000000" d="M446.3166,-113.9732C379.8208,-108.0645 256.7412,-92.4992 159.234,-53.7401 156.5192,-52.661 153.7902,-51.3993 151.0979,-50.0221"/>
<polygon fill="#000000" stroke="#000000" points="152.5912,-46.8463 142.16,-44.9914 149.1577,-52.9464 152.5912,-46.8463"/>
</g>
<!-- /lht_tree_doc/comm/arc.ID/children/r -->
<g id="node4" class="node">
<title>/lht_tree_doc/comm/arc.ID/children/r</title>
<g id="a_node4"><a xlink:href="tree.html#/lht_tree_doc/comm/arc.ID/children/r" xlink:title="radius ">
<ellipse fill="none" stroke="#000000" cx="201.234" cy="-26.8701" rx="33.4697" ry="26.7407"/>
<text text-anchor="middle" x="201.234" y="-30.6701" font-family="Times,serif" font-size="14.00" fill="#000000">r</text>
<text text-anchor="middle" x="201.234" y="-15.6701" font-family="Times,serif" font-size="14.00" fill="#000000">coord</text>
</a>
</g>
</g>
<!-- /lht_tree_doc/comm/arc.ID&#45;&gt;/lht_tree_doc/comm/arc.ID/children/r -->
<g id="edge3" class="edge">
<title>/lht_tree_doc/comm/arc.ID&#45;&gt;/lht_tree_doc/comm/arc.ID/children/r</title>
<path fill="none" stroke="#000000" d="M447.4363,-110.0998C395.8948,-101.1035 311.2994,-83.2112 243.234,-53.7401 240.5531,-52.5793 237.849,-51.2576 235.1745,-49.8375"/>
<polygon fill="#000000" stroke="#000000" points="236.6863,-46.6695 226.2721,-44.7214 233.1984,-52.7387 236.6863,-46.6695"/>
</g>
<!-- /lht_tree_doc/comm/arc.ID/children/sang -->
<g id="node5" class="node">
<title>/lht_tree_doc/comm/arc.ID/children/sang</title>
<g id="a_node5"><a xlink:href="tree.html#/lht_tree_doc/comm/arc.ID/children/sang" xlink:title="start angle ">
<ellipse fill="none" stroke="#000000" cx="285.234" cy="-26.8701" rx="32.5538" ry="26.7407"/>
<text text-anchor="middle" x="285.234" y="-30.6701" font-family="Times,serif" font-size="14.00" fill="#000000">sang</text>
<text text-anchor="middle" x="285.234" y="-15.6701" font-family="Times,serif" font-size="14.00" fill="#000000">angle</text>
</a>
</g>
</g>
<!-- /lht_tree_doc/comm/arc.ID&#45;&gt;/lht_tree_doc/comm/arc.ID/children/sang -->
<g id="edge4" class="edge">
<title>/lht_tree_doc/comm/arc.ID&#45;&gt;/lht_tree_doc/comm/arc.ID/children/sang</title>
<path fill="none" stroke="#000000" d="M451.7219,-104.1003C417.0875,-92.6593 367.3637,-74.6822 326.234,-53.7401 323.8285,-52.5153 321.3896,-51.1815 318.9626,-49.7845"/>
<polygon fill="#000000" stroke="#000000" points="320.6713,-46.7273 310.3066,-44.5309 317.0393,-52.7114 320.6713,-46.7273"/>
</g>
<!-- /lht_tree_doc/comm/arc.ID/children/dang -->
<g id="node6" class="node">
<title>/lht_tree_doc/comm/arc.ID/children/dang</title>
<g id="a_node6"><a xlink:href="tree.html#/lht_tree_doc/comm/arc.ID/children/dang" xlink:title="delta angle ">
<ellipse fill="none" stroke="#000000" cx="368.234" cy="-26.8701" rx="32.5538" ry="26.7407"/>
<text text-anchor="middle" x="368.234" y="-30.6701" font-family="Times,serif" font-size="14.00" fill="#000000">dang</text>
<text text-anchor="middle" x="368.234" y="-15.6701" font-family="Times,serif" font-size="14.00" fill="#000000">angle</text>
</a>
</g>
</g>
<!-- /lht_tree_doc/comm/arc.ID&#45;&gt;/lht_tree_doc/comm/arc.ID/children/dang -->
<g id="edge5" class="edge">
<title>/lht_tree_doc/comm/arc.ID&#45;&gt;/lht_tree_doc/comm/arc.ID/children/dang</title>
<path fill="none" stroke="#000000" d="M464.0539,-95.6529C445.1548,-82.0865 420.7888,-64.5957 401.3574,-50.6472"/>
<polygon fill="#000000" stroke="#000000" points="403.2535,-47.6999 393.0888,-44.7117 399.1714,-53.3865 403.2535,-47.6999"/>
</g>
<!-- /lht_tree_doc/comm/arc.ID/children/sx -->
<g id="node7" class="node">
<title>/lht_tree_doc/comm/arc.ID/children/sx</title>
<g id="a_node7"><a xlink:href="tree.html#/lht_tree_doc/comm/arc.ID/children/sx" xlink:title="start point, x coord ">
<ellipse fill="none" stroke="#000000" cx="452.234" cy="-26.8701" rx="33.4697" ry="26.7407"/>
<text text-anchor="middle" x="452.234" y="-30.6701" font-family="Times,serif" font-size="14.00" fill="#000000">sx</text>
<text text-anchor="middle" x="452.234" y="-15.6701" font-family="Times,serif" font-size="14.00" fill="#000000">coord</text>
</a>
</g>
</g>
<!-- /lht_tree_doc/comm/arc.ID&#45;&gt;/lht_tree_doc/comm/arc.ID/children/sx -->
<g id="edge6" class="edge">
<title>/lht_tree_doc/comm/arc.ID&#45;&gt;/lht_tree_doc/comm/arc.ID/children/sx</title>
<path fill="none" stroke="#000000" d="M481.6326,-90.1801C477.4283,-81.1261 472.6862,-70.914 468.2575,-61.3768"/>
<polygon fill="#000000" stroke="#000000" points="471.3509,-59.728 463.9648,-52.1323 465.002,-62.6762 471.3509,-59.728"/>
</g>
<!-- /lht_tree_doc/comm/arc.ID/children/sy -->
<g id="node8" class="node">
<title>/lht_tree_doc/comm/arc.ID/children/sy</title>
<g id="a_node8"><a xlink:href="tree.html#/lht_tree_doc/comm/arc.ID/children/sy" xlink:title="start point, y coord ">
<ellipse fill="none" stroke="#000000" cx="536.234" cy="-26.8701" rx="33.4697" ry="26.7407"/>
<text text-anchor="middle" x="536.234" y="-30.6701" font-family="Times,serif" font-size="14.00" fill="#000000">sy</text>
<text text-anchor="middle" x="536.234" y="-15.6701" font-family="Times,serif" font-size="14.00" fill="#000000">coord</text>
</a>
</g>
</g>
<!-- /lht_tree_doc/comm/arc.ID&#45;&gt;/lht_tree_doc/comm/arc.ID/children/sy -->
<g id="edge7" class="edge">
<title>/lht_tree_doc/comm/arc.ID&#45;&gt;/lht_tree_doc/comm/arc.ID/children/sy</title>
<path fill="none" stroke="#000000" d="M506.8354,-90.1801C511.0397,-81.1261 515.7818,-70.914 520.2105,-61.3768"/>
<polygon fill="#000000" stroke="#000000" points="523.466,-62.6762 524.5033,-52.1323 517.1171,-59.728 523.466,-62.6762"/>
</g>
<!-- /lht_tree_doc/comm/arc.ID/children/ex -->
<g id="node9" class="node">
<title>/lht_tree_doc/comm/arc.ID/children/ex</title>
<g id="a_node9"><a xlink:href="tree.html#/lht_tree_doc/comm/arc.ID/children/ex" xlink:title="end point, x coord ">
<ellipse fill="none" stroke="#000000" cx="620.234" cy="-26.8701" rx="33.4697" ry="26.7407"/>
<text text-anchor="middle" x="620.234" y="-30.6701" font-family="Times,serif" font-size="14.00" fill="#000000">ex</text>
<text text-anchor="middle" x="620.234" y="-15.6701" font-family="Times,serif" font-size="14.00" fill="#000000">coord</text>
</a>
</g>
</g>
<!-- /lht_tree_doc/comm/arc.ID&#45;&gt;/lht_tree_doc/comm/arc.ID/children/ex -->
<g id="edge8" class="edge">
<title>/lht_tree_doc/comm/arc.ID&#45;&gt;/lht_tree_doc/comm/arc.ID/children/ex</title>
<path fill="none" stroke="#000000" d="M524.4142,-95.6529C543.3132,-82.0865 567.6793,-64.5957 587.1107,-50.6472"/>
<polygon fill="#000000" stroke="#000000" points="589.2966,-53.3865 595.3793,-44.7117 585.2145,-47.6999 589.2966,-53.3865"/>
</g>
<!-- /lht_tree_doc/comm/arc.ID/children/ey -->
<g id="node10" class="node">
<title>/lht_tree_doc/comm/arc.ID/children/ey</title>
<g id="a_node10"><a xlink:href="tree.html#/lht_tree_doc/comm/arc.ID/children/ey" xlink:title="end point, y coord ">
<ellipse fill="none" stroke="#000000" cx="704.234" cy="-26.8701" rx="33.4697" ry="26.7407"/>
<text text-anchor="middle" x="704.234" y="-30.6701" font-family="Times,serif" font-size="14.00" fill="#000000">ey</text>
<text text-anchor="middle" x="704.234" y="-15.6701" font-family="Times,serif" font-size="14.00" fill="#000000">coord</text>
</a>
</g>
</g>
<!-- /lht_tree_doc/comm/arc.ID&#45;&gt;/lht_tree_doc/comm/arc.ID/children/ey -->
<g id="edge9" class="edge">
<title>/lht_tree_doc/comm/arc.ID&#45;&gt;/lht_tree_doc/comm/arc.ID/children/ey</title>
<path fill="none" stroke="#000000" d="M536.685,-103.9794C571.2839,-92.4683 620.9899,-74.4558 662.234,-53.7401 664.7722,-52.4653 667.3497,-51.0758 669.9147,-49.622"/>
<polygon fill="#000000" stroke="#000000" points="671.7096,-52.6268 678.5126,-44.5047 668.1294,-46.6116 671.7096,-52.6268"/>
</g>
<!-- /lht_tree_doc/comm/arc.ID/children/stroke -->
<g id="node11" class="node">
<title>/lht_tree_doc/comm/arc.ID/children/stroke</title>
<g id="a_node11"><a xlink:href="tree.html#/lht_tree_doc/comm/arc.ID/children/stroke" xlink:title="pen to use ">
<ellipse fill="none" stroke="#000000" cx="791.234" cy="-26.8701" rx="35.2113" ry="26.7407"/>
<text text-anchor="middle" x="791.234" y="-30.6701" font-family="Times,serif" font-size="14.00" fill="#000000">stroke</text>
<text text-anchor="middle" x="791.234" y="-15.6701" font-family="Times,serif" font-size="14.00" fill="#000000">pen</text>
</a>
</g>
</g>
<!-- /lht_tree_doc/comm/arc.ID&#45;&gt;/lht_tree_doc/comm/arc.ID/children/stroke -->
<g id="edge10" class="edge">
<title>/lht_tree_doc/comm/arc.ID&#45;&gt;/lht_tree_doc/comm/arc.ID/children/stroke</title>
<path fill="none" stroke="#000000" d="M540.5813,-109.813C592.1343,-100.5171 677.2437,-82.318 746.234,-53.7401 749.2604,-52.4865 752.3255,-51.0541 755.3586,-49.518"/>
<polygon fill="#000000" stroke="#000000" points="757.1692,-52.5177 764.291,-44.6736 753.832,-46.3644 757.1692,-52.5177"/>
</g>
<!-- /lht_tree_doc/comm/arc.ID/children/lock -->
<g id="node12" class="node">
<title>/lht_tree_doc/comm/arc.ID/children/lock</title>
<g id="a_node12"><a xlink:href="tree.html#/lht_tree_doc/comm/arc.ID/children/lock" xlink:title="object is locked ">
<ellipse fill="none" stroke="#000000" cx="873.234" cy="-26.8701" rx="28.9828" ry="26.7407"/>
<text text-anchor="middle" x="873.234" y="-30.6701" font-family="Times,serif" font-size="14.00" fill="#000000">lock</text>
<text text-anchor="middle" x="873.234" y="-15.6701" font-family="Times,serif" font-size="14.00" fill="#000000">bool</text>
</a>
</g>
</g>
<!-- /lht_tree_doc/comm/arc.ID&#45;&gt;/lht_tree_doc/comm/arc.ID/children/lock -->
<g id="edge11" class="edge">
<title>/lht_tree_doc/comm/arc.ID&#45;&gt;/lht_tree_doc/comm/arc.ID/children/lock</title>
<path fill="none" stroke="#000000" d="M542.1292,-114.8512C609.8519,-109.9492 736.3588,-95.5326 835.234,-53.7401 837.7295,-52.6853 840.2233,-51.4458 842.6729,-50.0882"/>
<polygon fill="#000000" stroke="#000000" points="844.6076,-53.007 851.2747,-44.7728 840.9279,-47.0521 844.6076,-53.007"/>
</g>
<!-- /lht_tree_doc/comm/arc.ID/children/floater -->
<g id="node13" class="node">
<title>/lht_tree_doc/comm/arc.ID/children/floater</title>
<g id="a_node13"><a xlink:href="tree.html#/lht_tree_doc/comm/arc.ID/children/floater" xlink:title="&quot;group lock&quot; doesn&#39;t apply ">
<ellipse fill="none" stroke="#000000" cx="957.234" cy="-26.8701" rx="36.5405" ry="26.7407"/>
<text text-anchor="middle" x="957.234" y="-30.6701" font-family="Times,serif" font-size="14.00" fill="#000000">floater</text>
<text text-anchor="middle" x="957.234" y="-15.6701" font-family="Times,serif" font-size="14.00" fill="#000000">bool</text>
</a>
</g>
</g>
<!-- /lht_tree_doc/comm/arc.ID&#45;&gt;/lht_tree_doc/comm/arc.ID/children/floater -->
<g id="edge12" class="edge">
<title>/lht_tree_doc/comm/arc.ID&#45;&gt;/lht_tree_doc/comm/arc.ID/children/floater</title>
<path fill="none" stroke="#000000" d="M542.5527,-115.8148C621.7458,-112.0727 783.1637,-99.041 911.234,-53.7401 914.373,-52.6298 917.5388,-51.3004 920.6618,-49.8355"/>
<polygon fill="#000000" stroke="#000000" points="922.5415,-52.8045 929.8329,-45.1178 919.3394,-46.5798 922.5415,-52.8045"/>
</g>
</g>
</svg>
