<?xml version="1.0" encoding="UTF-8" standalone="no"?>
<!DOCTYPE svg PUBLIC "-//W3C//DTD SVG 1.1//EN"
 "http://www.w3.org/Graphics/SVG/1.1/DTD/svg11.dtd">
<!-- Generated by graphviz version 2.40.1 (20161225.0304)
 -->
<!-- Title: ha:attribs Pages: 1 -->
<svg width="341pt" height="244pt"
 viewBox="0.00 0.00 340.97 244.05" xmlns="http://www.w3.org/2000/svg" xmlns:xlink="http://www.w3.org/1999/xlink">
<g id="graph0" class="graph" transform="scale(1 1) rotate(0) translate(4 240.0488)">
<title>ha:attribs</title>
<polygon fill="#ffffff" stroke="transparent" points="-4,4 -4,-240.0488 336.9655,-240.0488 336.9655,4 -4,4"/>
<!-- /lht_tree_doc/comm/attribs -->
<g id="node1" class="node">
<title>/lht_tree_doc/comm/attribs</title>
<g id="a_node1"><a xlink:href="tree.html#/lht_tree_doc/comm/attribs" xlink:title=" a hash of attributes &#160;">
<ellipse fill="none" stroke="#000000" cx="163.7817" cy="-208.4716" rx="47.2526" ry="27.6545"/>
<text text-anchor="middle" x="163.7817" y="-212.7716" font-family="Times,serif" font-size="14.00" fill="#000000">ha:attribs</text>
</a>
</g>
</g>
<!-- /lht_tree_doc/comm/attribs/children/simple&#45;attrib&#45;key -->
<g id="node2" class="node">
<title>/lht_tree_doc/comm/attribs/children/simple&#45;attrib&#45;key</title>
<g id="a_node2"><a xlink:href="tree.html#/lht_tree_doc/comm/attribs/children/simple-attrib-key" xlink:title="attribute value without metadata (text node)">
<ellipse fill="none" stroke="#000000" cx="77.7817" cy="-117.3173" rx="77.5641" ry="26.7407"/>
<text text-anchor="middle" x="77.7817" y="-121.1173" font-family="Times,serif" font-size="14.00" fill="#000000">simple&#45;attrib&#45;key</text>
<text text-anchor="middle" x="77.7817" y="-106.1173" font-family="Times,serif" font-size="14.00" fill="#000000">string</text>
</a>
</g>
</g>
<!-- /lht_tree_doc/comm/attribs&#45;&gt;/lht_tree_doc/comm/attribs/children/simple&#45;attrib&#45;key -->
<g id="edge1" class="edge">
<title>/lht_tree_doc/comm/attribs&#45;&gt;/lht_tree_doc/comm/attribs/children/simple&#45;attrib&#45;key</title>
<path fill="none" stroke="#000000" d="M140.7353,-184.0439C131.0332,-173.7603 119.5897,-161.631 109.1386,-150.5535"/>
<polygon fill="#000000" stroke="#000000" points="111.5037,-147.96 102.0954,-143.0881 106.412,-152.7638 111.5037,-147.96"/>
</g>
<!-- /lht_tree_doc/comm/attribs/children/detailed&#45;attrib -->
<g id="node3" class="node">
<title>/lht_tree_doc/comm/attribs/children/detailed&#45;attrib</title>
<g id="a_node3"><a xlink:href="tree.html#/lht_tree_doc/comm/attribs/children/detailed-attrib" xlink:title=" attribute with metadata (hash node) ">
<ellipse fill="none" stroke="#000000" cx="250.7817" cy="-117.3173" rx="77.1494" ry="27.6545"/>
<text text-anchor="middle" x="250.7817" y="-121.6173" font-family="Times,serif" font-size="14.00" fill="#000000">ha:detailed&#45;attrib</text>
</a>
</g>
</g>
<!-- /lht_tree_doc/comm/attribs&#45;&gt;/lht_tree_doc/comm/attribs/children/detailed&#45;attrib -->
<g id="edge2" class="edge">
<title>/lht_tree_doc/comm/attribs&#45;&gt;/lht_tree_doc/comm/attribs/children/detailed&#45;attrib</title>
<path fill="none" stroke="#000000" d="M187.0961,-184.0439C196.7475,-173.9317 208.1022,-162.0348 218.5308,-151.1082"/>
<polygon fill="#000000" stroke="#000000" points="221.1979,-153.3831 225.5703,-143.7326 216.134,-148.5501 221.1979,-153.3831"/>
</g>
<!-- /lht_tree_doc/comm/attribs/children/detailed&#45;attrib/children/value -->
<g id="node4" class="node">
<title>/lht_tree_doc/comm/attribs/children/detailed&#45;attrib/children/value</title>
<g id="a_node4"><a xlink:href="tree.html#/lht_tree_doc/comm/attribs/children/detailed-attrib/children/value" xlink:title="attribute value">
<ellipse fill="none" stroke="#000000" cx="205.7817" cy="-26.8701" rx="33.4697" ry="26.7407"/>
<text text-anchor="middle" x="205.7817" y="-30.6701" font-family="Times,serif" font-size="14.00" fill="#000000">value</text>
<text text-anchor="middle" x="205.7817" y="-15.6701" font-family="Times,serif" font-size="14.00" fill="#000000">string</text>
</a>
</g>
</g>
<!-- /lht_tree_doc/comm/attribs/children/detailed&#45;attrib&#45;&gt;/lht_tree_doc/comm/attribs/children/detailed&#45;attrib/children/value -->
<g id="edge3" class="edge">
<title>/lht_tree_doc/comm/attribs/children/detailed&#45;attrib&#45;&gt;/lht_tree_doc/comm/attribs/children/detailed&#45;attrib/children/value</title>
<path fill="none" stroke="#000000" d="M237.0357,-89.6887C232.5384,-80.6492 227.4882,-70.4986 222.7803,-61.0361"/>
<polygon fill="#000000" stroke="#000000" points="225.8078,-59.2636 218.2197,-51.8695 219.5406,-62.3817 225.8078,-59.2636"/>
</g>
<!-- /lht_tree_doc/comm/attribs/children/detailed&#45;attrib/children/prio -->
<g id="node5" class="node">
<title>/lht_tree_doc/comm/attribs/children/detailed&#45;attrib/children/prio</title>
<g id="a_node5"><a xlink:href="tree.html#/lht_tree_doc/comm/attribs/children/detailed-attrib/children/prio" xlink:title="priority value">
<ellipse fill="none" stroke="#000000" cx="294.7817" cy="-26.8701" rx="38.3684" ry="26.7407"/>
<text text-anchor="middle" x="294.7817" y="-30.6701" font-family="Times,serif" font-size="14.00" fill="#000000">prio</text>
<text text-anchor="middle" x="294.7817" y="-15.6701" font-family="Times,serif" font-size="14.00" fill="#000000">integer</text>
</a>
</g>
</g>
<!-- /lht_tree_doc/comm/attribs/children/detailed&#45;attrib&#45;&gt;/lht_tree_doc/comm/attribs/children/detailed&#45;attrib/children/prio -->
<g id="edge4" class="edge">
<title>/lht_tree_doc/comm/attribs/children/detailed&#45;attrib&#45;&gt;/lht_tree_doc/comm/attribs/children/detailed&#45;attrib/children/prio</title>
<path fill="none" stroke="#000000" d="M264.2223,-89.6887C268.5439,-80.8051 273.3876,-70.8483 277.9226,-61.5261"/>
<polygon fill="#000000" stroke="#000000" points="281.0966,-63.0023 282.3239,-52.4787 274.8019,-59.94 281.0966,-63.0023"/>
</g>
</g>
</svg>
