<?xml version="1.0" encoding="UTF-8" standalone="no"?>
<!DOCTYPE svg PUBLIC "-//W3C//DTD SVG 1.1//EN"
 "http://www.w3.org/Graphics/SVG/1.1/DTD/svg11.dtd">
<!-- Generated by graphviz version 2.40.1 (20161225.0304)
 -->
<!-- Title: ha:group.ID Pages: 1 -->
<svg width="1436pt" height="335pt"
 viewBox="0.00 0.00 1435.78 335.20" xmlns="http://www.w3.org/2000/svg" xmlns:xlink="http://www.w3.org/1999/xlink">
<g id="graph0" class="graph" transform="scale(1 1) rotate(0) translate(4 331.2031)">
<title>ha:group.ID</title>
<polygon fill="#ffffff" stroke="transparent" points="-4,4 -4,-331.2031 1431.7817,-331.2031 1431.7817,4 -4,4"/>
<!-- /lht_tree_doc/comm/group.ID -->
<g id="node1" class="node">
<title>/lht_tree_doc/comm/group.ID</title>
<g id="a_node1"><a xlink:href="tree.html#/lht_tree_doc/comm/group.ID" xlink:title=" Group of concrete objects ">
<ellipse fill="none" stroke="#000000" cx="445.598" cy="-299.6259" rx="58.8803" ry="27.6545"/>
<text text-anchor="middle" x="445.598" y="-303.9259" font-family="Times,serif" font-size="14.00" fill="#000000">ha:group.ID</text>
</a>
</g>
</g>
<!-- /lht_tree_doc/comm/group.ID/children/uuid -->
<g id="node2" class="node">
<title>/lht_tree_doc/comm/group.ID/children/uuid</title>
<g id="a_node2"><a xlink:href="tree.html#/lht_tree_doc/comm/group.ID/children/uuid" xlink:title="instance UID ">
<ellipse fill="none" stroke="#000000" cx="39.598" cy="-208.4716" rx="39.6962" ry="26.7407"/>
<text text-anchor="middle" x="39.598" y="-212.2716" font-family="Times,serif" font-size="14.00" fill="#000000">uuid</text>
<text text-anchor="middle" x="39.598" y="-197.2716" font-family="Times,serif" font-size="14.00" fill="#000000">minuid</text>
</a>
</g>
</g>
<!-- /lht_tree_doc/comm/group.ID&#45;&gt;/lht_tree_doc/comm/group.ID/children/uuid -->
<g id="edge1" class="edge">
<title>/lht_tree_doc/comm/group.ID&#45;&gt;/lht_tree_doc/comm/group.ID/children/uuid</title>
<path fill="none" stroke="#000000" d="M387.274,-295.4772C315.0684,-288.9488 189.1972,-272.9762 87.598,-236.0488 84.143,-234.793 80.6489,-233.2969 77.2045,-231.6602"/>
<polygon fill="#000000" stroke="#000000" points="78.7584,-228.5237 68.264,-227.0682 75.5602,-234.7504 78.7584,-228.5237"/>
</g>
<!-- /lht_tree_doc/comm/group.ID/children/src_uuid -->
<g id="node3" class="node">
<title>/lht_tree_doc/comm/group.ID/children/src_uuid</title>
<g id="a_node3"><a xlink:href="tree.html#/lht_tree_doc/comm/group.ID/children/src_uuid" xlink:title="source UID ">
<ellipse fill="none" stroke="#000000" cx="141.598" cy="-208.4716" rx="44.5955" ry="26.7407"/>
<text text-anchor="middle" x="141.598" y="-212.2716" font-family="Times,serif" font-size="14.00" fill="#000000">src_uuid</text>
<text text-anchor="middle" x="141.598" y="-197.2716" font-family="Times,serif" font-size="14.00" fill="#000000">minuid</text>
</a>
</g>
</g>
<!-- /lht_tree_doc/comm/group.ID&#45;&gt;/lht_tree_doc/comm/group.ID/children/src_uuid -->
<g id="edge2" class="edge">
<title>/lht_tree_doc/comm/group.ID&#45;&gt;/lht_tree_doc/comm/group.ID/children/src_uuid</title>
<path fill="none" stroke="#000000" d="M390.8836,-289.3855C339.503,-278.9152 260.9683,-260.6988 195.598,-236.0488 191.6642,-234.5654 187.6436,-232.8737 183.659,-231.0748"/>
<polygon fill="#000000" stroke="#000000" points="185.0204,-227.8469 174.4846,-226.7302 182.0244,-234.1734 185.0204,-227.8469"/>
</g>
<!-- /lht_tree_doc/comm/group.ID/children/x -->
<g id="node4" class="node">
<title>/lht_tree_doc/comm/group.ID/children/x</title>
<g id="a_node4"><a xlink:href="tree.html#/lht_tree_doc/comm/group.ID/children/x" xlink:title="xform: translate placement in x (horizontal) direction ">
<ellipse fill="none" stroke="#000000" cx="237.598" cy="-208.4716" rx="33.4697" ry="26.7407"/>
<text text-anchor="middle" x="237.598" y="-212.2716" font-family="Times,serif" font-size="14.00" fill="#000000">x</text>
<text text-anchor="middle" x="237.598" y="-197.2716" font-family="Times,serif" font-size="14.00" fill="#000000">coord</text>
</a>
</g>
</g>
<!-- /lht_tree_doc/comm/group.ID&#45;&gt;/lht_tree_doc/comm/group.ID/children/x -->
<g id="edge3" class="edge">
<title>/lht_tree_doc/comm/group.ID&#45;&gt;/lht_tree_doc/comm/group.ID/children/x</title>
<path fill="none" stroke="#000000" d="M396.8305,-284.0553C363.1072,-272.5453 317.64,-255.5349 279.598,-236.0488 276.8904,-234.6619 274.141,-233.141 271.4115,-231.5485"/>
<polygon fill="#000000" stroke="#000000" points="273.1919,-228.5347 262.8367,-226.2941 269.5345,-234.5032 273.1919,-228.5347"/>
</g>
<!-- /lht_tree_doc/comm/group.ID/children/y -->
<g id="node5" class="node">
<title>/lht_tree_doc/comm/group.ID/children/y</title>
<g id="a_node5"><a xlink:href="tree.html#/lht_tree_doc/comm/group.ID/children/y" xlink:title="xform: translate placement in y (vertical) direction ">
<ellipse fill="none" stroke="#000000" cx="321.598" cy="-208.4716" rx="33.4697" ry="26.7407"/>
<text text-anchor="middle" x="321.598" y="-212.2716" font-family="Times,serif" font-size="14.00" fill="#000000">y</text>
<text text-anchor="middle" x="321.598" y="-197.2716" font-family="Times,serif" font-size="14.00" fill="#000000">coord</text>
</a>
</g>
</g>
<!-- /lht_tree_doc/comm/group.ID&#45;&gt;/lht_tree_doc/comm/group.ID/children/y -->
<g id="edge4" class="edge">
<title>/lht_tree_doc/comm/group.ID&#45;&gt;/lht_tree_doc/comm/group.ID/children/y</title>
<path fill="none" stroke="#000000" d="M413.9867,-276.388C395.8172,-263.0313 373.0218,-246.274 354.6203,-232.7468"/>
<polygon fill="#000000" stroke="#000000" points="356.6374,-229.8857 346.5072,-226.7827 352.4913,-235.5258 356.6374,-229.8857"/>
</g>
<!-- /lht_tree_doc/comm/group.ID/children/rot -->
<g id="node6" class="node">
<title>/lht_tree_doc/comm/group.ID/children/rot</title>
<g id="a_node6"><a xlink:href="tree.html#/lht_tree_doc/comm/group.ID/children/rot" xlink:title="xform: rotate placement ">
<ellipse fill="none" stroke="#000000" cx="405.598" cy="-208.4716" rx="32.5538" ry="26.7407"/>
<text text-anchor="middle" x="405.598" y="-212.2716" font-family="Times,serif" font-size="14.00" fill="#000000">rot</text>
<text text-anchor="middle" x="405.598" y="-197.2716" font-family="Times,serif" font-size="14.00" fill="#000000">angle</text>
</a>
</g>
</g>
<!-- /lht_tree_doc/comm/group.ID&#45;&gt;/lht_tree_doc/comm/group.ID/children/rot -->
<g id="edge5" class="edge">
<title>/lht_tree_doc/comm/group.ID&#45;&gt;/lht_tree_doc/comm/group.ID/children/rot</title>
<path fill="none" stroke="#000000" d="M433.5967,-272.2766C429.5925,-263.1518 425.0763,-252.8599 420.8585,-243.2481"/>
<polygon fill="#000000" stroke="#000000" points="423.9935,-241.6821 416.7701,-233.9313 417.5835,-244.4949 423.9935,-241.6821"/>
</g>
<!-- /lht_tree_doc/comm/group.ID/children/mirx -->
<g id="node7" class="node">
<title>/lht_tree_doc/comm/group.ID/children/mirx</title>
<g id="a_node7"><a xlink:href="tree.html#/lht_tree_doc/comm/group.ID/children/mirx" xlink:title="xform: mirror placement left/right ">
<ellipse fill="none" stroke="#000000" cx="486.598" cy="-208.4716" rx="30.3115" ry="26.7407"/>
<text text-anchor="middle" x="486.598" y="-212.2716" font-family="Times,serif" font-size="14.00" fill="#000000">mirx</text>
<text text-anchor="middle" x="486.598" y="-197.2716" font-family="Times,serif" font-size="14.00" fill="#000000">bool</text>
</a>
</g>
</g>
<!-- /lht_tree_doc/comm/group.ID&#45;&gt;/lht_tree_doc/comm/group.ID/children/mirx -->
<g id="edge6" class="edge">
<title>/lht_tree_doc/comm/group.ID&#45;&gt;/lht_tree_doc/comm/group.ID/children/mirx</title>
<path fill="none" stroke="#000000" d="M457.8993,-272.2766C462.0389,-263.0731 466.7126,-252.6824 471.0677,-242.9997"/>
<polygon fill="#000000" stroke="#000000" points="474.3751,-244.1788 475.2852,-233.6231 467.9911,-241.3073 474.3751,-244.1788"/>
</g>
<!-- /lht_tree_doc/comm/group.ID/children/miry -->
<g id="node8" class="node">
<title>/lht_tree_doc/comm/group.ID/children/miry</title>
<g id="a_node8"><a xlink:href="tree.html#/lht_tree_doc/comm/group.ID/children/miry" xlink:title="xform: mirror placement child up/down ">
<ellipse fill="none" stroke="#000000" cx="565.598" cy="-208.4716" rx="30.3115" ry="26.7407"/>
<text text-anchor="middle" x="565.598" y="-212.2716" font-family="Times,serif" font-size="14.00" fill="#000000">miry</text>
<text text-anchor="middle" x="565.598" y="-197.2716" font-family="Times,serif" font-size="14.00" fill="#000000">bool</text>
</a>
</g>
</g>
<!-- /lht_tree_doc/comm/group.ID&#45;&gt;/lht_tree_doc/comm/group.ID/children/miry -->
<g id="edge7" class="edge">
<title>/lht_tree_doc/comm/group.ID&#45;&gt;/lht_tree_doc/comm/group.ID/children/miry</title>
<path fill="none" stroke="#000000" d="M476.501,-276.1514C494.1657,-262.733 516.2702,-245.942 534.0426,-232.4417"/>
<polygon fill="#000000" stroke="#000000" points="536.5348,-234.9439 542.3808,-226.1078 532.3005,-229.3697 536.5348,-234.9439"/>
</g>
<!-- /lht_tree_doc/comm/group.ID/children/loclib_name -->
<g id="node9" class="node">
<title>/lht_tree_doc/comm/group.ID/children/loclib_name</title>
<g id="a_node9"><a xlink:href="tree.html#/lht_tree_doc/comm/group.ID/children/loclib_name" xlink:title="name in the local library (optional)">
<ellipse fill="none" stroke="#000000" cx="673.598" cy="-208.4716" rx="59.2941" ry="26.7407"/>
<text text-anchor="middle" x="673.598" y="-212.2716" font-family="Times,serif" font-size="14.00" fill="#000000">loclib_name</text>
<text text-anchor="middle" x="673.598" y="-197.2716" font-family="Times,serif" font-size="14.00" fill="#000000">string</text>
</a>
</g>
</g>
<!-- /lht_tree_doc/comm/group.ID&#45;&gt;/lht_tree_doc/comm/group.ID/children/loclib_name -->
<g id="edge8" class="edge">
<title>/lht_tree_doc/comm/group.ID&#45;&gt;/lht_tree_doc/comm/group.ID/children/loclib_name</title>
<path fill="none" stroke="#000000" d="M490.3714,-281.7255C527.3139,-266.9559 579.8658,-245.9457 619.2228,-230.2108"/>
<polygon fill="#000000" stroke="#000000" points="620.9409,-233.2933 628.927,-226.3311 618.3422,-226.7935 620.9409,-233.2933"/>
</g>
<!-- /lht_tree_doc/comm/group.ID/children/objects -->
<g id="node10" class="node">
<title>/lht_tree_doc/comm/group.ID/children/objects</title>
<g id="a_node10"><a xlink:href="tree.html#/lht_tree_doc/comm/group.ID/children/objects" xlink:title=" List of child objects ">
<ellipse fill="none" stroke="#000000" cx="797.598" cy="-208.4716" rx="46.8387" ry="27.6545"/>
<text text-anchor="middle" x="797.598" y="-212.7716" font-family="Times,serif" font-size="14.00" fill="#000000">li:objects</text>
</a>
</g>
</g>
<!-- /lht_tree_doc/comm/group.ID&#45;&gt;/lht_tree_doc/comm/group.ID/children/objects -->
<g id="edge9" class="edge">
<title>/lht_tree_doc/comm/group.ID&#45;&gt;/lht_tree_doc/comm/group.ID/children/objects</title>
<path fill="none" stroke="#000000" d="M502.0907,-291.7325C562.5002,-282.3196 660.5504,-264.2251 741.598,-236.0488 745.5709,-234.6676 749.6264,-233.0713 753.648,-231.3569"/>
<polygon fill="#000000" stroke="#000000" points="755.2318,-234.4823 762.9157,-227.1879 752.3601,-228.0985 755.2318,-234.4823"/>
</g>
<!-- dup14_/lht_tree_doc/comm/attrib -->
<g id="node17" class="node">
<title>dup14_/lht_tree_doc/comm/attrib</title>
<g id="a_node17"><a xlink:href="tree.html#/lht_tree_doc/comm/attrib" xlink:title=" a hash of attributes &#160;">
<ellipse fill="none" stroke="#000000" cx="1172.598" cy="-208.4716" rx="43.6818" ry="27.6545"/>
<text text-anchor="middle" x="1172.598" y="-212.7716" font-family="Times,serif" font-size="14.00" fill="#000000">ha:attrib</text>
</a>
</g>
</g>
<!-- /lht_tree_doc/comm/group.ID&#45;&gt;dup14_/lht_tree_doc/comm/attrib -->
<g id="edge16" class="edge">
<title>/lht_tree_doc/comm/group.ID&#45;&gt;dup14_/lht_tree_doc/comm/attrib</title>
<path fill="none" stroke="#000000" d="M502.3416,-292.5112C639.2948,-275.3394 986.4352,-231.8135 1119.5344,-215.1249"/>
<polygon fill="#000000" stroke="#000000" points="1120.0068,-218.5932 1129.4937,-213.8762 1119.1359,-211.6476 1120.0068,-218.5932"/>
</g>
<!-- dup8_/lht_tree_doc/comm/group.ID/children/objects/children/line.ID -->
<g id="node11" class="node">
<title>dup8_/lht_tree_doc/comm/group.ID/children/objects/children/line.ID</title>
<g id="a_node11"><a xlink:href="line.ID.svg" xlink:title="line.ID &#45;&gt;\n\n\n">
<text text-anchor="middle" x="508.598" y="-129.6173" font-family="Times,serif" font-size="14.00" fill="#000000">line.ID &#45;&gt;</text>
</a>
</g>
</g>
<!-- /lht_tree_doc/comm/group.ID/children/objects&#45;&gt;dup8_/lht_tree_doc/comm/group.ID/children/objects/children/line.ID -->
<g id="edge10" class="edge">
<title>/lht_tree_doc/comm/group.ID/children/objects&#45;&gt;dup8_/lht_tree_doc/comm/group.ID/children/objects/children/line.ID</title>
<path fill="none" stroke="#000000" d="M763.2603,-189.7703C756.237,-186.4594 748.7907,-183.3052 741.598,-180.8944 660.9343,-153.8592 632.9299,-175.6186 553.598,-144.8944 553.4992,-144.8562 553.4004,-144.8177 553.3015,-144.779"/>
<polygon fill="#000000" stroke="#000000" points="554.6645,-141.5544 544.1088,-140.6447 551.7933,-147.9384 554.6645,-141.5544"/>
</g>
<!-- dup9_/lht_tree_doc/comm/group.ID/children/objects/children/arc.ID -->
<g id="node12" class="node">
<title>dup9_/lht_tree_doc/comm/group.ID/children/objects/children/arc.ID</title>
<g id="a_node12"><a xlink:href="arc.ID.svg" xlink:title="arc.ID &#45;&gt;\n\n\n">
<text text-anchor="middle" x="596.598" y="-129.6173" font-family="Times,serif" font-size="14.00" fill="#000000">arc.ID &#45;&gt;</text>
</a>
</g>
</g>
<!-- /lht_tree_doc/comm/group.ID/children/objects&#45;&gt;dup9_/lht_tree_doc/comm/group.ID/children/objects/children/arc.ID -->
<g id="edge11" class="edge">
<title>/lht_tree_doc/comm/group.ID/children/objects&#45;&gt;dup9_/lht_tree_doc/comm/group.ID/children/objects/children/arc.ID</title>
<path fill="none" stroke="#000000" d="M762.3414,-190.3239C755.5249,-187.0396 748.39,-183.7536 741.598,-180.8944 699.9725,-163.3719 684.6514,-165.6372 639.9544,-144.6614"/>
<polygon fill="#000000" stroke="#000000" points="641.4585,-141.501 630.9314,-140.3046 638.4147,-147.8046 641.4585,-141.501"/>
</g>
<!-- dup10_/lht_tree_doc/comm/group.ID/children/objects/children/polygon.ID -->
<g id="node13" class="node">
<title>dup10_/lht_tree_doc/comm/group.ID/children/objects/children/polygon.ID</title>
<g id="a_node13"><a xlink:href="polygon.ID.svg" xlink:title="polygon.ID &#45;&gt;\n\n\n">
<text text-anchor="middle" x="696.598" y="-129.6173" font-family="Times,serif" font-size="14.00" fill="#000000">polygon.ID &#45;&gt;</text>
</a>
</g>
</g>
<!-- /lht_tree_doc/comm/group.ID/children/objects&#45;&gt;dup10_/lht_tree_doc/comm/group.ID/children/objects/children/polygon.ID -->
<g id="edge12" class="edge">
<title>/lht_tree_doc/comm/group.ID/children/objects&#45;&gt;dup10_/lht_tree_doc/comm/group.ID/children/objects/children/polygon.ID</title>
<path fill="none" stroke="#000000" d="M771.8501,-185.2337C760.6214,-175.0995 747.2236,-163.0078 734.8656,-151.8545"/>
<polygon fill="#000000" stroke="#000000" points="737.1028,-149.1589 727.3341,-145.0572 732.4128,-154.3555 737.1028,-149.1589"/>
</g>
<!-- dup11_/lht_tree_doc/comm/group.ID/children/objects/children/text.ID -->
<g id="node14" class="node">
<title>dup11_/lht_tree_doc/comm/group.ID/children/objects/children/text.ID</title>
<g id="a_node14"><a xlink:href="text.ID.svg" xlink:title="text.ID &#45;&gt;\n\n\n">
<text text-anchor="middle" x="797.598" y="-129.6173" font-family="Times,serif" font-size="14.00" fill="#000000">text.ID &#45;&gt;</text>
</a>
</g>
</g>
<!-- /lht_tree_doc/comm/group.ID/children/objects&#45;&gt;dup11_/lht_tree_doc/comm/group.ID/children/objects/children/text.ID -->
<g id="edge13" class="edge">
<title>/lht_tree_doc/comm/group.ID/children/objects&#45;&gt;dup11_/lht_tree_doc/comm/group.ID/children/objects/children/text.ID</title>
<path fill="none" stroke="#000000" d="M797.598,-180.627C797.598,-172.5869 797.598,-163.6746 797.598,-155.1365"/>
<polygon fill="#000000" stroke="#000000" points="801.0981,-154.9913 797.598,-144.9914 794.0981,-154.9914 801.0981,-154.9913"/>
</g>
<!-- dup12_/lht_tree_doc/comm/group.ID/children/objects/children/connection.ID -->
<g id="node15" class="node">
<title>dup12_/lht_tree_doc/comm/group.ID/children/objects/children/connection.ID</title>
<g id="a_node15"><a xlink:href="connection.ID.svg" xlink:title="connection.ID &#45;&gt;\n\n\n">
<text text-anchor="middle" x="906.598" y="-129.6173" font-family="Times,serif" font-size="14.00" fill="#000000">connection.ID &#45;&gt;</text>
</a>
</g>
</g>
<!-- /lht_tree_doc/comm/group.ID/children/objects&#45;&gt;dup12_/lht_tree_doc/comm/group.ID/children/objects/children/connection.ID -->
<g id="edge14" class="edge">
<title>/lht_tree_doc/comm/group.ID/children/objects&#45;&gt;dup12_/lht_tree_doc/comm/group.ID/children/objects/children/connection.ID</title>
<path fill="none" stroke="#000000" d="M824.5418,-185.9391C836.8736,-175.6263 851.7598,-163.1773 865.4485,-151.7297"/>
<polygon fill="#000000" stroke="#000000" points="867.9157,-154.229 873.3415,-145.1289 863.4251,-148.8592 867.9157,-154.229"/>
</g>
<!-- dup13_/lht_tree_doc/comm/group.ID/children/objects/children/pen.NAME -->
<g id="node16" class="node">
<title>dup13_/lht_tree_doc/comm/group.ID/children/objects/children/pen.NAME</title>
<g id="a_node16"><a xlink:href="pen.NAME.svg" xlink:title="pen.NAME &#45;&gt;\n\n\n">
<text text-anchor="middle" x="1028.598" y="-129.6173" font-family="Times,serif" font-size="14.00" fill="#000000">pen.NAME &#45;&gt;</text>
</a>
</g>
</g>
<!-- /lht_tree_doc/comm/group.ID/children/objects&#45;&gt;dup13_/lht_tree_doc/comm/group.ID/children/objects/children/pen.NAME -->
<g id="edge15" class="edge">
<title>/lht_tree_doc/comm/group.ID/children/objects&#45;&gt;dup13_/lht_tree_doc/comm/group.ID/children/objects/children/pen.NAME</title>
<path fill="none" stroke="#000000" d="M838.2049,-194.7314C873.5251,-182.5002 925.9092,-163.6835 970.598,-144.8944 970.6943,-144.8539 970.7908,-144.8133 970.8873,-144.7727"/>
<polygon fill="#000000" stroke="#000000" points="972.2286,-148.006 980.0102,-140.8159 969.4432,-141.584 972.2286,-148.006"/>
</g>
<!-- dup14_/lht_tree_doc/comm/attrib/children/simple&#45;attrib&#45;key -->
<g id="node18" class="node">
<title>dup14_/lht_tree_doc/comm/attrib/children/simple&#45;attrib&#45;key</title>
<g id="a_node18"><a xlink:href="tree.html#/lht_tree_doc/comm/attrib/children/simple-attrib-key" xlink:title="attribute value without metadata (text node)">
<ellipse fill="none" stroke="#000000" cx="1172.598" cy="-117.3173" rx="77.5641" ry="26.7407"/>
<text text-anchor="middle" x="1172.598" y="-121.1173" font-family="Times,serif" font-size="14.00" fill="#000000">simple&#45;attrib&#45;key</text>
<text text-anchor="middle" x="1172.598" y="-106.1173" font-family="Times,serif" font-size="14.00" fill="#000000">string</text>
</a>
</g>
</g>
<!-- dup14_/lht_tree_doc/comm/attrib&#45;&gt;dup14_/lht_tree_doc/comm/attrib/children/simple&#45;attrib&#45;key -->
<g id="edge17" class="edge">
<title>dup14_/lht_tree_doc/comm/attrib&#45;&gt;dup14_/lht_tree_doc/comm/attrib/children/simple&#45;attrib&#45;key</title>
<path fill="none" stroke="#000000" d="M1172.598,-180.627C1172.598,-172.348 1172.598,-163.1443 1172.598,-154.3765"/>
<polygon fill="#000000" stroke="#000000" points="1176.0981,-154.3658 1172.598,-144.3659 1169.0981,-154.3659 1176.0981,-154.3658"/>
</g>
<!-- dup14_/lht_tree_doc/comm/attrib/children/detailed&#45;attrib -->
<g id="node19" class="node">
<title>dup14_/lht_tree_doc/comm/attrib/children/detailed&#45;attrib</title>
<g id="a_node19"><a xlink:href="tree.html#/lht_tree_doc/comm/attrib/children/detailed-attrib" xlink:title=" attribute with metadata (hash node) ">
<ellipse fill="none" stroke="#000000" cx="1345.598" cy="-117.3173" rx="77.1494" ry="27.6545"/>
<text text-anchor="middle" x="1345.598" y="-121.6173" font-family="Times,serif" font-size="14.00" fill="#000000">ha:detailed&#45;attrib</text>
</a>
</g>
</g>
<!-- dup14_/lht_tree_doc/comm/attrib&#45;&gt;dup14_/lht_tree_doc/comm/attrib/children/detailed&#45;attrib -->
<g id="edge18" class="edge">
<title>dup14_/lht_tree_doc/comm/attrib&#45;&gt;dup14_/lht_tree_doc/comm/attrib/children/detailed&#45;attrib</title>
<path fill="none" stroke="#000000" d="M1206.3648,-190.6797C1231.0316,-177.6827 1264.95,-159.811 1293.1333,-144.9611"/>
<polygon fill="#000000" stroke="#000000" points="1294.8477,-148.014 1302.0632,-140.2559 1291.5846,-141.821 1294.8477,-148.014"/>
</g>
<!-- dup14_/lht_tree_doc/comm/attrib/children/detailed&#45;attrib/children/value -->
<g id="node20" class="node">
<title>dup14_/lht_tree_doc/comm/attrib/children/detailed&#45;attrib/children/value</title>
<g id="a_node20"><a xlink:href="tree.html#/lht_tree_doc/comm/attrib/children/detailed-attrib/children/value" xlink:title="attribute value">
<ellipse fill="none" stroke="#000000" cx="1300.598" cy="-26.8701" rx="33.4697" ry="26.7407"/>
<text text-anchor="middle" x="1300.598" y="-30.6701" font-family="Times,serif" font-size="14.00" fill="#000000">value</text>
<text text-anchor="middle" x="1300.598" y="-15.6701" font-family="Times,serif" font-size="14.00" fill="#000000">string</text>
</a>
</g>
</g>
<!-- dup14_/lht_tree_doc/comm/attrib/children/detailed&#45;attrib&#45;&gt;dup14_/lht_tree_doc/comm/attrib/children/detailed&#45;attrib/children/value -->
<g id="edge19" class="edge">
<title>dup14_/lht_tree_doc/comm/attrib/children/detailed&#45;attrib&#45;&gt;dup14_/lht_tree_doc/comm/attrib/children/detailed&#45;attrib/children/value</title>
<path fill="none" stroke="#000000" d="M1331.852,-89.6887C1327.3546,-80.6492 1322.3044,-70.4986 1317.5965,-61.0361"/>
<polygon fill="#000000" stroke="#000000" points="1320.624,-59.2636 1313.0359,-51.8695 1314.3568,-62.3817 1320.624,-59.2636"/>
</g>
<!-- dup14_/lht_tree_doc/comm/attrib/children/detailed&#45;attrib/children/prio -->
<g id="node21" class="node">
<title>dup14_/lht_tree_doc/comm/attrib/children/detailed&#45;attrib/children/prio</title>
<g id="a_node21"><a xlink:href="tree.html#/lht_tree_doc/comm/attrib/children/detailed-attrib/children/prio" xlink:title="priority value">
<ellipse fill="none" stroke="#000000" cx="1389.598" cy="-26.8701" rx="38.3684" ry="26.7407"/>
<text text-anchor="middle" x="1389.598" y="-30.6701" font-family="Times,serif" font-size="14.00" fill="#000000">prio</text>
<text text-anchor="middle" x="1389.598" y="-15.6701" font-family="Times,serif" font-size="14.00" fill="#000000">integer</text>
</a>
</g>
</g>
<!-- dup14_/lht_tree_doc/comm/attrib/children/detailed&#45;attrib&#45;&gt;dup14_/lht_tree_doc/comm/attrib/children/detailed&#45;attrib/children/prio -->
<g id="edge20" class="edge">
<title>dup14_/lht_tree_doc/comm/attrib/children/detailed&#45;attrib&#45;&gt;dup14_/lht_tree_doc/comm/attrib/children/detailed&#45;attrib/children/prio</title>
<path fill="none" stroke="#000000" d="M1359.0385,-89.6887C1363.3601,-80.8051 1368.2038,-70.8483 1372.7388,-61.5261"/>
<polygon fill="#000000" stroke="#000000" points="1375.9128,-63.0023 1377.1401,-52.4787 1369.6181,-59.94 1375.9128,-63.0023"/>
</g>
</g>
</svg>
