cschem abstract model v1
components
 anon_comp_11
  attributes
   sym-copyright=(C) 2022 Tibor 'Igor2' Palinkas
   sym-license-dist=GPLv2+
   role=symbol
   sym-license-use=Public Domain
   sym-source=sch-rnd default symbol lib
   connect []
    1:GND
  ports
   1
    attributes
     role=terminal
     display/name=1
     name=1
 anon_comp_1
  attributes
   sym-copyright=(C) 2022 Tibor 'Igor2' Palinkas
   sym-license-dist=GPLv2+
   role=symbol
   sym-license-use=Public Domain
   sym-source=sch-rnd default symbol lib
   connect []
    1:GND
  ports
   1
    attributes
     role=terminal
     display/name=1
     name=1
 anon_comp_2
  attributes
   sym-copyright=(C) 2022 Tibor 'Igor2' Palinkas
   sym-license-dist=GPLv2+
   role=symbol
   sym-license-use=Public Domain
   sym-source=sch-rnd default symbol lib
   connect []
    1:GND
  ports
   1
    attributes
     role=terminal
     display/name=1
     name=1
 anon_comp_15
  attributes
   sym-copyright=(C) 2022 Tibor 'Igor2' Palinkas
   sym-license-dist=GPLv2+
   role=symbol
   sym-source=sch-rnd default symbol lib
   sym-license-use=Public Domain
   connect []
    1:Vcc
  ports
   1
    attributes
     role=terminal
     display/name=1
     name=1
 anon_comp_14
  attributes
   role=symbol
   connect []
    1:Vcc
  ports
   1
    attributes
     role=terminal
     display/name=1
     name=1
 anon_comp_17
  attributes
   sym-copyright=(C) 2022 Tibor 'Igor2' Palinkas
   sym-license-dist=GPLv2+
   role=symbol
   sym-source=sch-rnd default symbol lib
   sym-license-use=Public Domain
   connect []
    1:Vcc
  ports
   1
    attributes
     role=terminal
     display/name=1
     name=1
 anon_comp_6
  attributes
   sym-copyright=(C) 2022 Tibor 'Igor2' Palinkas
   sym-license-dist=GPLv2+
   role=symbol
   sym-license-use=Public Domain
   sym-source=sch-rnd default symbol lib
   connect []
    1:GND
  ports
   1
    attributes
     role=terminal
     display/name=1
     name=1
 anon_comp_7
  attributes
   sym-copyright=(C) 2022 Tibor 'Igor2' Palinkas
   sym-license-dist=GPLv2+
   role=symbol
   sym-license-use=Public Domain
   sym-source=sch-rnd default symbol lib
   connect []
    1:GND
  ports
   1
    attributes
     role=terminal
     display/name=1
     name=1
 CONN2
  attributes
   role=symbol
   name=CONN2
  ports
   3
    attributes
     role=terminal
     display/name=3
     name=3
   1
    attributes
     role=terminal
     display/name=1
     name=1
   2
    attributes
     role=terminal
     display/name=2
     name=2
 anon_comp_9
  attributes
   sym-copyright=(C) 2022 Tibor 'Igor2' Palinkas
   sym-license-dist=GPLv2+
   role=symbol
   sym-license-use=Public Domain
   sym-source=sch-rnd default symbol lib
   connect []
    1:GND
  ports
   1
    attributes
     role=terminal
     display/name=1
     name=1
 U1
  attributes
   portmap []
    1/in- -> pcb/pinnum=2
    1/in+ -> pcb/pinnum=3
    1/out -> pcb/pinnum=1
    1/V+ -> pcb/pinnum=8
    1/V- -> pcb/pinnum=4
    2/in- -> pcb/pinnum=6
    2/in+ -> pcb/pinnum=5
    2/out -> pcb/pinnum=7
    2/V+ -> pcb/pinnum=8
    2/V- -> pcb/pinnum=4
   devmap=lm358_so8
   footprint=so(8)
   role=symbol
   sym-source=sch-rnd default symbol lib
   sym-copyright=(C) 2022 Tibor 'Igor2' Palinkas
   sym-license-use=Public Domain
   name=U1
   sym-license-dist=GPLv2+
  ports
   2/V+
    attributes
     pcb/pinnum=8
     display/name=8
     role=terminal
     spice/pinnum=4
     name=V+
   2/in+
    attributes
     pcb/pinnum=5
     display/name=5
     role=terminal
     spice/pinnum=2
     name=in+
   2/V-
    attributes
     pcb/pinnum=4
     display/name=4
     role=terminal
     spice/pinnum=5
     name=V-
   2/in-
    attributes
     pcb/pinnum=6
     display/name=6
     role=terminal
     spice/pinnum=1
     name=in-
   1/V+
    attributes
     pcb/pinnum=8
     display/name=8
     role=terminal
     spice/pinnum=4
     name=V+
   1/V-
    attributes
     pcb/pinnum=4
     display/name=4
     role=terminal
     spice/pinnum=5
     name=V-
   2/out
    attributes
     pcb/pinnum=7
     display/name=7
     role=terminal
     spice/pinnum=3
     name=out
   1/in+
    attributes
     pcb/pinnum=3
     display/name=3
     role=terminal
     spice/pinnum=2
     name=in+
   1/in-
    attributes
     pcb/pinnum=2
     display/name=2
     role=terminal
     spice/pinnum=1
     name=in-
   1/out
    attributes
     pcb/pinnum=1
     display/name=1
     role=terminal
     spice/pinnum=3
     name=out
 CONN1
  attributes
   role=symbol
   name=CONN1
  ports
   3
    attributes
     role=terminal
     display/name=3
     name=3
   1
    attributes
     role=terminal
     display/name=1
     name=1
   2
    attributes
     role=terminal
     display/name=2
     name=2
 anon_comp_16
  attributes
   sym-copyright=(C) 2022 Tibor 'Igor2' Palinkas
   sym-license-dist=GPLv2+
   role=symbol
   sym-source=sch-rnd default symbol lib
   sym-license-use=Public Domain
   connect []
    1:Vcc
  ports
   1
    attributes
     role=terminal
     display/name=1
     name=1
 C1
  attributes
   role=symbol
   sym-source=sch-rnd default symbol lib
   sym-copyright=(C) 2022 Tibor 'Igor2' Palinkas
   value=100n
   sym-license-use=Public Domain
   name=C1
   sym-license-dist=GPLv2+
  ports
   1
    attributes
     role=terminal
     display/name=1
     name=1
   2
    attributes
     role=terminal
     display/name=2
     name=2
 R1
  attributes
   role=symbol
   sym-source=sch-rnd default symbol lib
   sym-copyright=(C) 2022 Tibor 'Igor2' Palinkas
   value=470k
   sym-license-use=Public Domain
   name=R1
   sym-license-dist=GPLv2+
  ports
   1
    attributes
     role=terminal
     display/name=1
     name=1
   2
    attributes
     role=terminal
     display/name=2
     name=2
 R2
  attributes
   role=symbol
   sym-source=sch-rnd default symbol lib
   sym-copyright=(C) 2022 Tibor 'Igor2' Palinkas
   value=470k
   sym-license-use=Public Domain
   name=R2
   sym-license-dist=GPLv2+
  ports
   1
    attributes
     role=terminal
     display/name=1
     name=1
   2
    attributes
     role=terminal
     display/name=2
     name=2
nets
 mid
  attributes
   role=wire-net
   name=mid
  conns 6
   CONN2-2
   R1-2
   R2-1
   C1-2
   U1-2/in-
   U1-2/out
 in
  attributes
   role=wire-net
   name=in
  conns 4
   C1-1
   CONN1-2
   U1-1/in-
   U1-1/out
 Vcc
  attributes
   role=wire-net
  conns 7
   anon_comp_14-1
   U1-1/V+
   anon_comp_15-1
   R1-1
   anon_comp_16-1
   CONN2-3
   anon_comp_17-1
 GND
  attributes
   role=wire-net
  conns 12
   anon_comp_1-1
   U1-1/V-
   anon_comp_2-1
   U1-1/in+
   R2-2
   anon_comp_6-1
   anon_comp_7-1
   U1-2/in+
   CONN2-1
   anon_comp_9-1
   CONN1-1
   anon_comp_11-1
